\relax 
\providecommand\hyper@newdestlabel[2]{}
\providecommand\HyperFirstAtBeginDocument{\AtBeginDocument}
\HyperFirstAtBeginDocument{\ifx\hyper@anchor\@undefined
\global\let\oldcontentsline\contentsline
\gdef\contentsline#1#2#3#4{\oldcontentsline{#1}{#2}{#3}}
\global\let\oldnewlabel\newlabel
\gdef\newlabel#1#2{\newlabelxx{#1}#2}
\gdef\newlabelxx#1#2#3#4#5#6{\oldnewlabel{#1}{{#2}{#3}}}
\AtEndDocument{\ifx\hyper@anchor\@undefined
\let\contentsline\oldcontentsline
\let\newlabel\oldnewlabel
\fi}
\fi}
\global\let\hyper@last\relax 
\gdef\HyperFirstAtBeginDocument#1{#1}
\providecommand\HyField@AuxAddToFields[1]{}
\providecommand\HyField@AuxAddToCoFields[2]{}
\gdef \tocmax@section{12.2778pt}
\gdef \tocmax@subsection{5.0pt}
\gdef \tocmax@subsubsection{5.0pt}
\gdef \tocmax@paragraph{5.0pt}
\gdef \tocmax@appendix{5.0pt}
\gdef \tocmax@pagenum{5.00002pt}
\citation{timmes_accuracy_2000}
\citation{timmes_accuracy_2000}
\citation{timmes_accuracy_2000}
\bibdata{../../bib/DanielBib}
\bibcite{timmes_accuracy_1999}{{1}{1999}{{Timmes \& Arnett}}{{}}}
\bibcite{timmes_accuracy_2000}{{2}{2000}{{Timmes \& Swesty}}{{}}}
\@writefile{toc}{\tocdepth@munge}
\newlabel{FirstPage}{{}{1}{}{Doc-Start}{}}
\@writefile{toc}{\tocdepth@restore}
\@writefile{toc}{\contentsline {section}{\numberline {1}Helmholtz EOS}{1}{section.1}\protected@file@percent }
\newlabel{Helm_eq}{{1}{1}{Helmholtz EOS}{equation.1.1}{}}
\newlabel{eq:pressure}{{2}{1}{Helmholtz EOS}{equation.1.2}{}}
\newlabel{eq:entropy}{{3}{1}{Helmholtz EOS}{equation.1.3}{}}
\@writefile{toc}{\contentsline {section}{\numberline {2}Section 2}{1}{section.2}\protected@file@percent }
\bibstyle{aasjournal}
\newlabel{LastPage}{{}{1}{}{}{}}
\gdef \@abspage@last{1}
